Embedded Micro System Design/HW5/scomp/scomp.vcd
$comment
Copyright (C) 1991-2010 Altera Corporation
Your use of Altera Corporation's design tools, logic functions 
and other software and tools, and its AMPP partner logic 
functions, and any output files from any of the foregoing 
(including device programming or simulation files), and any 
associated documentation or information are expressly subject 
to the terms and conditions of the Altera Program License 
Subscription Agreement, Altera MegaCore Function License 
Agreement, or other applicable license agreement, including, 
without limitation, that your use is for the sole purpose of 
programming logic devices manufactured by Altera and sold by 
Altera or its authorized distributors.  Please refer to the 
applicable agreement for further details.
$end

$date 
  10/21/2013 02:13:35 
$end
$version 
 QUARTUS_VCD_EXPORT 1.0 
$end
$timescale
  1 ps
$end
$scope module SCOMP $end
$var reg 1 ! clock $end
$var reg 1 " reset $end
$var reg 8 # program_counter_out[7:0] $end
$var real 1 $ state $end
$var reg 16 % instruction_register[15:0] $end
$var reg 16 & register_AC_out[15:0] $end
$var reg 8 ' memory_address_register_out[7:0] $end
$var reg 16 ( memory_data_register_out[15:0] $end
$var reg 1 ) memory_write $end
$upscope $end
$enddefinitions $end
#0
$dumpvars
0!
1"
b0 #
rstate.reset_pc $
b0 %
b0 &
b0 '
b0 (
0)
$end
#10000
1!
b1001100000 (
#20000
0!
#25000
0"
#30000
1!
rstate.fetch $
#40000
0!
#50000
1!
b1 #
rstate.decode $
b1001100000 %
b1100000 '
#60000
0!
#70000
1!
rstate.execute_load $
b1 '
b1010101010101010 (
#80000
0!
#90000
1!
rstate.fetch $
b1010101010101010 &
b1100001 (
#100000
0!
#110000
1!
b10 #
rstate.decode $
b1100001 %
b1100001 '
#120000
0!
#130000
1!
rstate.execute_add $
b10 '
b101010101010101 (
#140000
0!
#150000
1!
rstate.fetch $
b1111111111111111 &
b101100010 (
#160000
0!
#170000
1!
b11 #
rstate.decode $
b101100010 %
b1100010 '
#180000
0!
#190000
1!
rstate.execute_store $
b0 (
#200000
0!
#210000
1!
rstate.execute_store2 $
1)
#220000
0!
#230000
1!
rstate.execute_store3 $
b11 '
b1111111111111111 (
0)
#240000
0!
#250000
1!
rstate.fetch $
b1001100010 (
#260000
0!
#270000
1!
b100 #
rstate.decode $
b1001100010 %
b1100010 '
#280000
0!
#290000
1!
rstate.execute_load $
b100 '
b1111111111111111 (
#300000
0!
#310000
1!
rstate.fetch $
b1001100001 (
#320000
0!
#330000
1!
b101 #
rstate.decode $
b1001100001 %
b1100001 '
#340000
0!
#350000
1!
rstate.execute_load $
b101 '
b101010101010101 (
#360000
0!
#370000
1!
rstate.fetch $
b101010101010101 &
b10101100011 (
#380000
0!
#390000
1!
b110 #
rstate.decode $
b10101100011 %
b1100011 '
#400000
0!
#410000
1!
rstate.execute_subt $
b110 '
b11001100110011 (
#420000
0!
#430000
1!
rstate.fetch $
b10001000100010 &
b101100100 (
#440000
0!
#450000
1!
b111 #
rstate.decode $
b101100100 %
b1100100 '
#460000
0!
#470000
1!
rstate.execute_store $
b0 (
#480000
0!
#490000
1!
rstate.execute_store2 $
1)
#500000
0!
#510000
1!
rstate.execute_store3 $
b111 '
b10001000100010 (
0)
#520000
0!
#530000
1!
rstate.fetch $
b1001100100 (
#540000
0!
#550000
1!
b1000 #
rstate.decode $
b1001100100 %
b1100100 '
#560000
0!
#570000
1!
rstate.execute_load $
b1000 '
b10001000100010 (
#580000
0!
#590000
1!
rstate.fetch $
b1001100001 (
#600000
0!
#610000
1!
b1001 #
rstate.decode $
b1001100001 %
b1100001 '
#620000
0!
#630000
1!
rstate.execute_load $
b1001 '
b101010101010101 (
#640000
0!
#650000
1!
rstate.fetch $
b101010101010101 &
b11001100011 (
#660000
0!
#670000
1!
b1010 #
rstate.decode $
b11001100011 %
b1100011 '
#680000
0!
#690000
1!
rstate.execute_xor $
b1010 '
b11001100110011 (
#700000
0!
#710000
1!
rstate.fetch $
b110011001100110 &
b101100101 (
#720000
0!
#730000
1!
b1011 #
rstate.decode $
b101100101 %
b1100101 '
#740000
0!
#750000
1!
rstate.execute_store $
b0 (
#760000
0!
#770000
1!
rstate.execute_store2 $
1)
#780000
0!
#790000
1!
rstate.execute_store3 $
b1011 '
b110011001100110 (
0)
#800000
0!
#810000
1!
rstate.fetch $
b1001100101 (
#820000
0!
#830000
1!
b1100 #
rstate.decode $
b1001100101 %
b1100101 '
#840000
0!
#850000
1!
rstate.execute_load $
b1100 '
b110011001100110 (
#860000
0!
#870000
1!
rstate.fetch $
b1001100001 (
#880000
0!
#890000
1!
b1101 #
rstate.decode $
b1001100001 %
b1100001 '
#900000
0!
#910000
1!
rstate.execute_load $
b1101 '
b101010101010101 (
#920000
0!
#930000
1!
rstate.fetch $
b101010101010101 &
b11101100011 (
#940000
0!
#950000
1!
b1110 #
rstate.decode $
b11101100011 %
b1100011 '
#960000
0!
#970000
1!
rstate.execute_or $
b1110 '
b11001100110011 (
#980000
0!
#990000
1!
rstate.fetch $
b111011101110111 &
b101100110 (
#1000000
0!
#1010000
1!
b1111 #
rstate.decode $
b101100110 %
b1100110 '
#1020000
0!
#1030000
1!
rstate.execute_store $
b0 (
#1040000
0!
#1050000
1!
rstate.execute_store2 $
1)
#1060000
0!
#1070000
1!
rstate.execute_store3 $
b1111 '
b111011101110111 (
0)
#1080000
0!
#1090000
1!
rstate.fetch $
b1001100110 (
#1100000
0!
#1110000
1!
b10000 #
rstate.decode $
b1001100110 %
b1100110 '
#1120000
0!
#1130000
1!
rstate.execute_load $
b10000 '
b111011101110111 (
#1140000
0!
#1150000
1!
rstate.fetch $
b1001100001 (
#1160000
0!
#1170000
1!
b10001 #
rstate.decode $
b1001100001 %
b1100001 '
#1180000
0!
#1190000
1!
rstate.execute_load $
b10001 '
b101010101010101 (
#1200000
0!
#1210000
1!
rstate.fetch $
b101010101010101 &
b100001100011 (
#1220000
0!
#1230000
1!
b10010 #
rstate.decode $
b100001100011 %
b1100011 '
#1240000
0!
#1250000
1!
rstate.execute_and $
b10010 '
b11001100110011 (
#1260000
0!
#1270000
1!
rstate.fetch $
b1000100010001 &
b101100111 (
#1280000
0!
#1290000
1!
b10011 #
rstate.decode $
b101100111 %
b1100111 '
#1300000
0!
#1310000
1!
rstate.execute_store $
b0 (
#1320000
0!
#1330000
1!
rstate.execute_store2 $
1)
#1340000
0!
#1350000
1!
rstate.execute_store3 $
b10011 '
b1000100010001 (
0)
#1360000
0!
#1370000
1!
rstate.fetch $
b1001100111 (
#1380000
0!
#1390000
1!
b10100 #
rstate.decode $
b1001100111 %
b1100111 '
#1400000
0!
#1410000
1!
rstate.execute_load $
b10100 '
b1000100010001 (
#1420000
0!
#1430000
1!
rstate.fetch $
b1001100001 (
#1440000
0!
#1450000
1!
b10101 #
rstate.decode $
b1001100001 %
b1100001 '
#1460000
0!
#1470000
1!
rstate.execute_load $
b10101 '
b101010101010101 (
#1480000
0!
#1490000
1!
rstate.fetch $
b101010101010101 &
b101111111111 (
#1500000
0!
#1510000
1!
b10110 #
rstate.decode $
b101111111111 %
b11111111 '
#1520000
0!
#1530000
1!
rstate.execute_addi $
b10110 '
b0 (
#1540000
0!
#1550000
1!
rstate.fetch $
b101101000 (
#1560000
0!
#1570000
1!
b10111 #
rstate.decode $
b101101000 %
b1101000 '
#1580000
0!
#1590000
1!
rstate.execute_store $
b0 (
#1600000
0!
#1610000
1!
rstate.execute_store2 $
1)
#1620000
0!
#1630000
1!
rstate.execute_store3 $
b10111 '
b101010101010101 (
0)
#1640000
0!
#1650000
1!
rstate.fetch $
b1001101000 (
#1660000
0!
#1670000
1!
b11000 #
rstate.decode $
b1001101000 %
b1101000 '
#1680000
0!
#1690000
1!
rstate.execute_load $
b11000 '
b101010101010101 (
#1700000
0!
#1710000
1!
rstate.fetch $
b1100011000 (
#1720000
0!
#1730000
1!
b11001 #
rstate.decode $
b1100011000 %
#1740000
0!
#1750000
1!
rstate.execute_jump $
#1760000
0!
#1770000
1!
b11000 #
rstate.fetch $
#1780000
0!
#1790000
1!
b11001 #
rstate.decode $
#1800000
0!
#1810000
1!
rstate.execute_jump $
#1820000
0!
#1830000
1!
b11000 #
rstate.fetch $
#1840000
0!
#1850000
1!
b11001 #
rstate.decode $
#1860000
0!
#1870000
1!
rstate.execute_jump $
#1880000
0!
#1890000
1!
b11000 #
rstate.fetch $
#1900000
0!
#1910000
1!
b11001 #
rstate.decode $
#1920000
0!
#1930000
1!
rstate.execute_jump $
#1940000
0!
#1950000
1!
b11000 #
rstate.fetch $
#1960000
0!
#1970000
1!
b11001 #
rstate.decode $
#1980000
0!
#1990000
1!
rstate.execute_jump $
#2000000
0!
#2010000
1!
b11000 #
rstate.fetch $
#2020000
0!
#2030000
1!
b11001 #
rstate.decode $
#2040000
0!
#2050000
1!
rstate.execute_jump $
#2060000
0!
#2070000
1!
b11000 #
rstate.fetch $
#2080000
0!
#2090000
1!
b11001 #
rstate.decode $
#2100000
0!
#2110000
1!
rstate.execute_jump $
#2120000
0!
#2130000
1!
b11000 #
rstate.fetch $
#2140000
0!
#2150000
1!
b11001 #
rstate.decode $
#2160000
0!
#2170000
1!
rstate.execute_jump $
#2180000
0!
#2190000
1!
b11000 #
rstate.fetch $
#2200000
0!
#2210000
1!
b11001 #
rstate.decode $
#2220000
0!
#2230000
1!
rstate.execute_jump $
#2240000
0!
#2250000
1!
b11000 #
rstate.fetch $
#2260000
0!
#2270000
1!
b11001 #
rstate.decode $
#2280000
0!
#2290000
1!
rstate.execute_jump $
#2300000
0!
#2310000
1!
b11000 #
rstate.fetch $
#2320000
0!
#2330000
1!
b11001 #
rstate.decode $
#2340000
0!
#2350000
1!
rstate.execute_jump $
#2360000
0!
#2370000
1!
b11000 #
rstate.fetch $
#2380000
0!
#2390000
1!
b11001 #
rstate.decode $
#2400000
0!
#2410000
1!
rstate.execute_jump $
#2420000
0!
#2430000
1!
b11000 #
rstate.fetch $
#2440000
0!
#2450000
1!
b11001 #
rstate.decode $
#2460000
0!
#2470000
1!
rstate.execute_jump $
#2480000
0!
#2490000
1!
b11000 #
rstate.fetch $
#2500000
0!
#2510000
1!
b11001 #
rstate.decode $
#2520000
0!
#2530000
1!
rstate.execute_jump $
#2540000
0!
#2550000
1!
b11000 #
rstate.fetch $
#2560000
0!
#2570000
1!
b11001 #
rstate.decode $
#2580000
0!
#2590000
1!
rstate.execute_jump $
#2600000
0!
#2610000
1!
b11000 #
rstate.fetch $
#2620000
0!
#2630000
1!
b11001 #
rstate.decode $
#2640000
0!
#2650000
1!
rstate.execute_jump $
#2660000
0!
#2670000
1!
b11000 #
rstate.fetch $
#2680000
0!
#2690000
1!
b11001 #
rstate.decode $
#2700000
0!
#2710000
1!
rstate.execute_jump $
#2720000
0!
#2730000
1!
b11000 #
rstate.fetch $
#2740000
0!
#2750000
1!
b11001 #
rstate.decode $
#2760000
0!
#2770000
1!
rstate.execute_jump $
#2780000
0!
#2790000
1!
b11000 #
rstate.fetch $
#2800000
0!
#2810000
1!
b11001 #
rstate.decode $
#2820000
0!
#2830000
1!
rstate.execute_jump $
#2840000
0!
#2850000
1!
b11000 #
rstate.fetch $
#2860000
0!
#2870000
1!
b11001 #
rstate.decode $
#2880000
0!
#2890000
1!
rstate.execute_jump $
#2900000
0!
#2910000
1!
b11000 #
rstate.fetch $
#2920000
0!
#2930000
1!
b11001 #
rstate.decode $
#2940000
0!
#2950000
1!
rstate.execute_jump $
#2960000
0!
#2970000
1!
b11000 #
rstate.fetch $
#2980000
0!
#2990000
1!
b11001 #
rstate.decode $
#3000000
0!
#3010000
1!
rstate.execute_jump $
#3020000
0!
#3030000
1!
b11000 #
rstate.fetch $
#3040000
0!
#3050000
1!
b11001 #
rstate.decode $
#3060000
0!
#3070000
1!
rstate.execute_jump $
#3080000
0!
#3090000
1!
b11000 #
rstate.fetch $
#3100000
0!
#3110000
1!
b11001 #
rstate.decode $
#3120000
0!
#3130000
1!
rstate.execute_jump $
#3140000
0!
#3150000
1!
b11000 #
rstate.fetch $
#3160000
0!
#3170000
1!
b11001 #
rstate.decode $
#3180000
0!
#3190000
1!
rstate.execute_jump $
#3200000
0!
#3210000
1!
b11000 #
rstate.fetch $
#3220000
0!
#3230000
1!
b11001 #
rstate.decode $
#3240000
0!
#3250000
1!
rstate.execute_jump $
#3260000
0!
#3270000
1!
b11000 #
rstate.fetch $
#3280000
0!
#3290000
1!
b11001 #
rstate.decode $
#3300000
0!
#3310000
1!
rstate.execute_jump $
#3320000
0!
#3330000
1!
b11000 #
rstate.fetch $
#3340000
0!
#3350000
1!
b11001 #
rstate.decode $
#3360000
0!
#3370000
1!
rstate.execute_jump $
#3380000
0!
#3390000
1!
b11000 #
rstate.fetch $
#3400000
0!
#3410000
1!
b11001 #
rstate.decode $
#3420000
0!
#3430000
1!
rstate.execute_jump $
#3440000
0!
#3450000
1!
b11000 #
rstate.fetch $
#3460000
0!
#3470000
1!
b11001 #
rstate.decode $
#3480000
0!
#3490000
1!
rstate.execute_jump $
#3500000
0!
#3510000
1!
b11000 #
rstate.fetch $
#3520000
0!
#3530000
1!
b11001 #
rstate.decode $
#3540000
0!
#3550000
1!
rstate.execute_jump $
#3560000
0!
#3570000
1!
b11000 #
rstate.fetch $
#3580000
0!
#3590000
1!
b11001 #
rstate.decode $
#3600000
0!
#3610000
1!
rstate.execute_jump $
#3620000
0!
#3630000
1!
b11000 #
rstate.fetch $
#3640000
0!
#3650000
1!
b11001 #
rstate.decode $
#3660000
0!
#3670000
1!
rstate.execute_jump $
#3680000
0!
#3690000
1!
b11000 #
rstate.fetch $
#3700000
0!
#3710000
1!
b11001 #
rstate.decode $
#3720000
0!
#3730000
1!
rstate.execute_jump $
#3740000
0!
#3750000
1!
b11000 #
rstate.fetch $
#3760000
0!
#3770000
1!
b11001 #
rstate.decode $
#3780000
0!
#3790000
1!
rstate.execute_jump $
#3800000
0!
#3810000
1!
b11000 #
rstate.fetch $
#3820000
0!
#3830000
1!
b11001 #
rstate.decode $
#3840000
0!
#3850000
1!
rstate.execute_jump $
#3860000
0!
#3870000
1!
b11000 #
rstate.fetch $
#3880000
0!
#3890000
1!
b11001 #
rstate.decode $
#3900000
0!
#3910000
1!
rstate.execute_jump $
#3920000
0!
#3930000
1!
b11000 #
rstate.fetch $
#3940000
0!
#3950000
1!
b11001 #
rstate.decode $
#3960000
0!
#3970000
1!
rstate.execute_jump $
#3980000
0!
#3990000
1!
b11000 #
rstate.fetch $
#4000000
0!
#4010000
1!
b11001 #
rstate.decode $
#4020000
0!
#4030000
1!
rstate.execute_jump $
#4040000
0!
#4050000
1!
b11000 #
rstate.fetch $
#4060000
0!
#4070000
1!
b11001 #
rstate.decode $
#4080000
0!
#4090000
1!
rstate.execute_jump $
#4100000
0!
#4110000
1!
b11000 #
rstate.fetch $
#4120000
0!
#4130000
1!
b11001 #
rstate.decode $
#4140000
0!
#4150000
1!
rstate.execute_jump $
#4160000
0!
#4170000
1!
b11000 #
rstate.fetch $
#4180000
0!
#4190000
1!
b11001 #
rstate.decode $
#4200000
0!
#4210000
1!
rstate.execute_jump $
#4220000
0!
#4230000
1!
b11000 #
rstate.fetch $
#4240000
0!
#4250000
1!
b11001 #
rstate.decode $
#4260000
0!
#4270000
1!
rstate.execute_jump $
#4280000
0!
#4290000
1!
b11000 #
rstate.fetch $
#4300000
0!
#4310000
1!
b11001 #
rstate.decode $
#4320000
0!
#4330000
1!
rstate.execute_jump $
#4340000
0!
#4350000
1!
b11000 #
rstate.fetch $
#4360000
0!
#4370000
1!
b11001 #
rstate.decode $
#4380000
0!
#4390000
1!
rstate.execute_jump $
#4400000
0!
#4410000
1!
b11000 #
rstate.fetch $
#4420000
0!
#4430000
1!
b11001 #
rstate.decode $
#4440000
0!
#4450000
1!
rstate.execute_jump $
#4460000
0!
#4470000
1!
b11000 #
rstate.fetch $
#4480000
0!
#4490000
1!
b11001 #
rstate.decode $
#4500000
0!
#4510000
1!
rstate.execute_jump $
#4520000
0!
#4530000
1!
b11000 #
rstate.fetch $
#4540000
0!
#4550000
1!
b11001 #
rstate.decode $
#4560000
0!
#4570000
1!
rstate.execute_jump $
#4580000
0!
#4590000
1!
b11000 #
rstate.fetch $
#4600000
0!
#4610000
1!
b11001 #
rstate.decode $
#4620000
0!
#4630000
1!
rstate.execute_jump $
#4640000
0!
#4650000
1!
b11000 #
rstate.fetch $
#4660000
0!
#4670000
1!
b11001 #
rstate.decode $
#4680000
0!
#4690000
1!
rstate.execute_jump $
#4700000
0!
#4710000
1!
b11000 #
rstate.fetch $
#4720000
0!
#4730000
1!
b11001 #
rstate.decode $
#4740000
0!
#4750000
1!
rstate.execute_jump $
#4760000
0!
#4770000
1!
b11000 #
rstate.fetch $
#4780000
0!
#4790000
1!
b11001 #
rstate.decode $
#4800000
0!
#4810000
1!
rstate.execute_jump $
#4820000
0!
#4830000
1!
b11000 #
rstate.fetch $
#4840000
0!
#4850000
1!
b11001 #
rstate.decode $
#4860000
0!
#4870000
1!
rstate.execute_jump $
#4880000
0!
#4890000
1!
b11000 #
rstate.fetch $
#4900000
0!
#4910000
1!
b11001 #
rstate.decode $
#4920000
0!
#4930000
1!
rstate.execute_jump $
#4940000
0!
#4950000
1!
b11000 #
rstate.fetch $
#4960000
0!
#4970000
1!
b11001 #
rstate.decode $
#4980000
0!
#4990000
1!
rstate.execute_jump $
#5000000
0!
#5010000
1!
b11000 #
rstate.fetch $
#5020000
0!
#5030000
1!
b11001 #
rstate.decode $
#5040000
0!
#5050000
1!
rstate.execute_jump $
#5060000
0!
#5070000
1!
b11000 #
rstate.fetch $
#5080000
0!
#5090000
1!
b11001 #
rstate.decode $
#5100000
0!
#5110000
1!
rstate.execute_jump $
#5120000
0!
#5130000
1!
b11000 #
rstate.fetch $
#5140000
0!
#5150000
1!
b11001 #
rstate.decode $
#5160000
0!
#5170000
1!
rstate.execute_jump $
#5180000
0!
#5190000
1!
b11000 #
rstate.fetch $
#5200000
0!
#5210000
1!
b11001 #
rstate.decode $
#5220000
0!
#5230000
1!
rstate.execute_jump $
#5240000
0!
#5250000
1!
b11000 #
rstate.fetch $
#5260000
0!
#5270000
1!
b11001 #
rstate.decode $
#5280000
0!
#5290000
1!
rstate.execute_jump $
#5300000
0!
#5310000
1!
b11000 #
rstate.fetch $
#5320000
0!
#5330000
1!
b11001 #
rstate.decode $
#5340000
0!
#5350000
1!
rstate.execute_jump $
#5360000
0!
#5370000
1!
b11000 #
rstate.fetch $
#5380000
0!
#5390000
1!
b11001 #
rstate.decode $
#5400000
0!
#5410000
1!
rstate.execute_jump $
#5420000
0!
#5430000
1!
b11000 #
rstate.fetch $
#5440000
0!
#5450000
1!
b11001 #
rstate.decode $
#5460000
0!
#5470000
1!
rstate.execute_jump $
#5480000
0!
#5490000
1!
b11000 #
rstate.fetch $
#5500000
0!
#5510000
1!
b11001 #
rstate.decode $
#5520000
0!
#5530000
1!
rstate.execute_jump $
#5540000
0!
#5550000
1!
b11000 #
rstate.fetch $
#5560000
0!
#5570000
1!
b11001 #
rstate.decode $
#5580000
0!
#5590000
1!
rstate.execute_jump $
#5600000
0!
#5610000
1!
b11000 #
rstate.fetch $
#5620000
0!
#5630000
1!
b11001 #
rstate.decode $
#5640000
0!
#5650000
1!
rstate.execute_jump $
#5660000
0!
#5670000
1!
b11000 #
rstate.fetch $
#5680000
0!
#5690000
1!
b11001 #
rstate.decode $
#5700000
0!
#5710000
1!
rstate.execute_jump $
#5720000
0!
#5730000
1!
b11000 #
rstate.fetch $
#5740000
0!
#5750000
1!
b11001 #
rstate.decode $
#5760000
0!
#5770000
1!
rstate.execute_jump $
#5780000
0!
#5790000
1!
b11000 #
rstate.fetch $
#5800000
0!
#5810000
1!
b11001 #
rstate.decode $
#5820000
0!
#5830000
1!
rstate.execute_jump $
#5840000
0!
#5850000
1!
b11000 #
rstate.fetch $
#5860000
0!
#5870000
1!
b11001 #
rstate.decode $
#5880000
0!
#5890000
1!
rstate.execute_jump $
#5900000
0!
#5910000
1!
b11000 #
rstate.fetch $
#5920000
0!
#5930000
1!
b11001 #
rstate.decode $
#5940000
0!
#5950000
1!
rstate.execute_jump $
#5960000
0!
#5970000
1!
b11000 #
rstate.fetch $
#5980000
0!
#5990000
1!
b11001 #
rstate.decode $
#6000000
0!
#6010000
1!
rstate.execute_jump $
#6020000
0!
#6030000
1!
b11000 #
rstate.fetch $
#6040000
0!
#6050000
1!
b11001 #
rstate.decode $
#6060000
0!
#6070000
1!
rstate.execute_jump $
#6080000
0!
#6090000
1!
b11000 #
rstate.fetch $
#6100000
0!
#6110000
1!
b11001 #
rstate.decode $
#6120000
0!
#6130000
1!
rstate.execute_jump $
#6140000
0!
#6150000
1!
b11000 #
rstate.fetch $
#6160000
0!
#6170000
1!
b11001 #
rstate.decode $
#6180000
0!
#6190000
1!
rstate.execute_jump $
#6200000
0!
#6210000
1!
b11000 #
rstate.fetch $
#6220000
0!
#6230000
1!
b11001 #
rstate.decode $
#6240000
0!
#6250000
1!
rstate.execute_jump $
#6260000
0!
#6270000
1!
b11000 #
rstate.fetch $
#6280000
0!
#6290000
1!
b11001 #
rstate.decode $
#6300000
0!
#6310000
1!
rstate.execute_jump $
#6320000
0!
#6330000
1!
b11000 #
rstate.fetch $
#6340000
0!
#6350000
1!
b11001 #
rstate.decode $
#6360000
0!
#6370000
1!
rstate.execute_jump $
#6380000
0!
#6390000
1!
b11000 #
rstate.fetch $
#6400000
0!
#6410000
1!
b11001 #
rstate.decode $
#6420000
0!
#6430000
1!
rstate.execute_jump $
#6440000
0!
#6450000
1!
b11000 #
rstate.fetch $
#6460000
0!
#6470000
1!
b11001 #
rstate.decode $
#6480000
0!
#6490000
1!
rstate.execute_jump $
#6500000
0!
#6510000
1!
b11000 #
rstate.fetch $
#6520000
0!
#6530000
1!
b11001 #
rstate.decode $
#6540000
0!
#6550000
1!
rstate.execute_jump $
#6560000
0!
#6570000
1!
b11000 #
rstate.fetch $
#6580000
0!
#6590000
1!
b11001 #
rstate.decode $
#6600000
0!
#6610000
1!
rstate.execute_jump $
#6620000
0!
#6630000
1!
b11000 #
rstate.fetch $
#6640000
0!
#6650000
1!
b11001 #
rstate.decode $
#6660000
0!
#6670000
1!
rstate.execute_jump $
#6680000
0!
#6690000
1!
b11000 #
rstate.fetch $
#6700000
0!
#6710000
1!
b11001 #
rstate.decode $
#6720000
0!
#6730000
1!
rstate.execute_jump $
#6740000
0!
#6750000
1!
b11000 #
rstate.fetch $
#6760000
0!
#6770000
1!
b11001 #
rstate.decode $
#6780000
0!
#6790000
1!
rstate.execute_jump $
#6800000
0!
#6810000
1!
b11000 #
rstate.fetch $
#6820000
0!
#6830000
1!
b11001 #
rstate.decode $
#6840000
0!
#6850000
1!
rstate.execute_jump $
#6860000
0!
#6870000
1!
b11000 #
rstate.fetch $
#6880000
0!
#6890000
1!
b11001 #
rstate.decode $
#6900000
0!
#6910000
1!
rstate.execute_jump $
#6920000
0!
#6930000
1!
b11000 #
rstate.fetch $
#6940000
0!
#6950000
1!
b11001 #
rstate.decode $
#6960000
0!
#6970000
1!
rstate.execute_jump $
#6980000
0!
#6990000
1!
b11000 #
rstate.fetch $
