Embedded Micro System Design/HW4/hw4a/hw4a.vcd
$comment
Copyright (C) 1991-2010 Altera Corporation
Your use of Altera Corporation's design tools, logic functions 
and other software and tools, and its AMPP partner logic 
functions, and any output files from any of the foregoing 
(including device programming or simulation files), and any 
associated documentation or information are expressly subject 
to the terms and conditions of the Altera Program License 
Subscription Agreement, Altera MegaCore Function License 
Agreement, or other applicable license agreement, including, 
without limitation, that your use is for the sole purpose of 
programming logic devices manufactured by Altera and sold by 
Altera or its authorized distributors.  Please refer to the 
applicable agreement for further details.
$end

$date 
  10/05/2013 22:49:28 
$end
$version 
 QUARTUS_VCD_EXPORT 1.0 
$end
$timescale
  1 ps
$end
$scope module hw4a $end
$var reg 1 ! CLR $end
$var reg 1 " LOAD $end
$var reg 1 # DATA_A $end
$var reg 1 $ DATA_B $end
$var reg 1 % DATA_C $end
$var reg 1 & DATA_D $end
$var reg 1 ' clk $end
$var reg 1 ( ENP $end
$var reg 1 ) ENT $end
$var reg 1 * Q_A $end
$var reg 1 + Q_B $end
$var reg 1 , Q_C $end
$var reg 1 - Q_D $end
$var reg 1 . RC0 $end
$var reg 1 / \Q_A~result  $end
$var reg 1 0 \Q_B~result  $end
$var reg 1 1 \Q_C~result  $end
$var reg 1 2 \Q_D~result  $end
$upscope $end
$enddefinitions $end
#0
$dumpvars
1!
1"
0#
0$
0%
0&
1'
0(
0)
Z*
Z+
Z,
Z-
0.
0/
00
01
02
$end
#10000
0!
1%
1&
0'
1/
10
11
12
#15000
1'
#20000
1!
0"
0'
0+
X0
01
02
#25000
1'
#30000
1"
X$
X%
X&
0'
1(
1)
1*
Z+
X/
00
X1
#35000
1'
#40000
0'
1/
X0
#45000
1'
#50000
0'
X.
X/
X2
#55000
1'
X.
#60000
0'
0(
X.
#65000
1'
X.
#70000
0'
X.
#75000
1'
X.
#80000
0'
X.
#85000
1'
X.
#90000
0'
1(
0)
Z*
0.
0/
#95000
1'
#100000
0!
0"
0$
0%
0&
0'
0(
#105000
1'
#110000
0'
1/
10
11
12
